<?xml version="1.0" standalone="no"?>
<!DOCTYPE svg PUBLIC "-//W3C//DTD SVG 20010904//EN"
 "http://www.w3.org/TR/2001/REC-SVG-20010904/DTD/svg10.dtd">
<svg version="1.0" xmlns="http://www.w3.org/2000/svg"
 width="1575.000000pt" height="503.000000pt" viewBox="0 0 1575.000000 503.000000"
 preserveAspectRatio="xMidYMid meet">
<metadata>
Created by potrace 1.16, written by Peter Selinger 2001-2019
</metadata>
<g transform="translate(0.000000,503.000000) scale(0.100000,-0.100000)"
fill="#000000" stroke="none">
<path d="M1030 3770 l0 -230 844 -2 845 -3 -178 -215 c-98 -118 -491 -595
-874 -1059 l-697 -844 0 -188 0 -189 1215 0 1215 0 -2 228 -3 227 -868 3
c-510 1 -867 6 -865 11 2 5 329 404 728 887 399 483 789 956 868 1051 l142
174 0 189 0 190 -1185 0 -1185 0 0 -230z"/>
<path d="M4470 2520 l0 -1480 255 0 255 0 2 1052 3 1051 815 -1051 815 -1052
218 0 217 0 0 1480 0 1480 -255 0 -255 0 -2 -1021 -3 -1022 -790 1021 -790
1021 -242 0 -243 1 0 -1480z"/>
<path d="M9850 2589 c-380 -34 -650 -361 -650 -786 1 -304 125 -545 354 -687
285 -178 657 -142 902 87 41 38 84 83 96 100 l21 30 -21 17 c-21 17 -23 16
-114 -74 -151 -148 -290 -210 -478 -210 -128 -1 -188 13 -305 69 -143 69 -258
189 -324 340 -30 67 -61 199 -61 258 l0 47 674 0 c448 0 677 3 681 10 4 6 1
52 -5 103 -55 467 -350 733 -770 696z m240 -76 c125 -34 259 -133 336 -246 62
-92 112 -237 128 -369 l7 -58 -647 0 -647 0 6 73 c24 276 222 530 467 597 113
32 245 33 350 3z"/>
<path d="M12125 2589 c-164 -16 -299 -94 -417 -240 -48 -60 -128 -207 -128
-236 0 -7 -4 -13 -10 -13 -6 0 -10 83 -10 230 l0 230 -30 0 -30 0 0 -760 0
-760 30 0 30 0 0 393 c1 413 7 501 41 607 90 271 284 459 508 490 41 6 77 12
79 14 2 2 2 15 0 28 -3 22 -6 23 -63 17z"/>
<path d="M13265 2576 c-99 -16 -177 -39 -275 -78 -93 -38 -103 -46 -87 -74 12
-21 12 -21 109 18 166 67 234 81 398 82 212 1 330 -36 436 -136 108 -102 143
-195 151 -400 l6 -137 -62 20 c-181 56 -446 86 -620 69 -332 -31 -535 -177
-571 -412 -30 -192 62 -364 240 -451 116 -57 185 -71 335 -70 154 1 247 22
370 82 133 66 200 130 292 277 9 15 12 -16 12 -153 l1 -173 30 0 30 0 0 515
c0 578 -3 613 -66 743 -64 133 -179 221 -341 263 -100 26 -281 33 -388 15z
m450 -712 c93 -15 191 -40 258 -66 l27 -10 0 -122 c0 -70 -6 -143 -14 -172
-50 -188 -223 -343 -452 -405 -62 -18 -107 -22 -214 -22 -119 0 -144 3 -212
25 -137 45 -217 111 -267 218 -23 48 -26 68 -26 155 0 89 3 106 28 156 68 139
229 231 456 259 87 11 291 3 416 -16z"/>
</g>
</svg>
